[
{
"acceleration": -2.0,
"curvature": 0.0,
"pose": {
"rotation": {
"radians": -0.011363147264291037
},
"translation": {
"x": 14.935761776292527,
"y": 5.04204690730701
}
},
"time": 0.0,
"velocity": -0.0
},
{
"acceleration": -1.9999999999999996,
"curvature": -0.19140589587248222,
"pose": {
"rotation": {
"radians": 0.000149661859576532
},
"translation": {
"x": 14.832424831710526,
"y": 5.042797585067298
}
},
"time": 0.3214648832242588,
"velocity": -0.6429297664485176
},
{
"acceleration": -0.38503901964586007,
"curvature": -0.21639236222592334,
"pose": {
"rotation": {
"radians": 0.024369874910446575
},
"translation": {
"x": 14.719671215802896,
"y": 5.0414387812494565
}
},
"time": 0.4648671576798977,
"velocity": -0.9297343153597954
},
{
"acceleration": -0.09071753449916083,
"curvature": -0.19510313539528681,
"pose": {
"rotation": {
"radians": 0.03716449334826125
},
"translation": {
"x": 14.657768929154363,
"y": 5.03952674404157
}
},
"time": 0.5305852261759384,
"velocity": -0.9550383360265304
},
{
"acceleration": -0.08859129892285578,
"curvature": -0.1667769945103191,
"pose": {
"rotation": {
"radians": 0.04916389885570533
},
"translation": {
"x": 14.591550787045234,
"y": 5.036656294934822
}
},
"time": 0.5997586666211363,
"velocity": -0.9613135799965433
},
{
"acceleration": -0.07774963179486755,
"curvature": -0.13778163278624805,
"pose": {
"rotation": {
"radians": 0.05993744074607353
},
"translation": {
"x": 14.520782570390017,
"y": 5.0327798358434555
}
},
"time": 0.6732364135227195,
"velocity": -0.9678230690364794
},
{
"acceleration": -0.06489587570113836,
"curvature": -0.11118262921633061,
"pose": {
"rotation": {
"radians": 0.0693103836558495
},
"translation": {
"x": 14.44540165306996,
"y": 5.027888958214831
}
},
"time": 0.7510440924114535,
"velocity": -0.9738725874208918
},
{
"acceleration": -0.053069233582374836,
"curvature": -0.08804452960816331,
"pose": {
"rotation": {
"radians": 0.07725851780210541
},
"translation": {
"x": 14.36550004063027,
"y": 5.022010505514416
}
},
"time": 0.8330868119169859,
"velocity": -0.9791968215481062
},
{
"acceleration": -0.043327890257728804,
"curvature": -0.06839590354562591,
"pose": {
"rotation": {
"radians": 0.08383532842738475
},
"translation": {
"x": 14.281307408977339,
"y": 5.015202635710779
}
},
"time": 0.9191480572594373,
"velocity": -0.9837640258795748
},
{
"acceleration": -0.03580762707033402,
"curvature": -0.0518100744598634,
"pose": {
"rotation": {
"radians": 0.08912657502551243
},
"translation": {
"x": 14.193174143075952,
"y": 5.0075508837605796
}
},
"time": 1.008895505807392,
"velocity": -0.9876525934811717
},
{
"acceleration": -0.030291608619960227,
"curvature": -0.03771026051660751,
"pose": {
"rotation": {
"radians": 0.09322401627387335
},
"translation": {
"x": 14.101554375646518,
"y": 4.999164224093566
}
},
"time": 1.1018917449448826,
"velocity": -0.9909825681311506
},
{
"acceleration": -0.026482842361235735,
"curvature": -0.02551052638978273,
"pose": {
"rotation": {
"radians": 0.096211200815947
},
"translation": {
"x": 14.006989025862284,
"y": 4.990171133097562
}
},
"time": 1.197608105849339,
"velocity": -0.9938819706741953
},
{
"acceleration": -0.02411996750720165,
"curvature": -0.014669037008103507,
"pose": {
"rotation": {
"radians": 0.0981563442423419
},
"translation": {
"x": 13.910088838046553,
"y": 4.980715651603461
}
},
"time": 1.2954403366266731,
"velocity": -0.9964728462197194
},
{
"acceleration": 0.00035095507783217724,
"curvature": -0.004698249415177629,
"pose": {
"rotation": {
"radians": 0.09910912491598851
},
"translation": {
"x": 13.811517420369908,
"y": 4.970953447370219
}
},
"time": 1.3947252957710765,
"velocity": -0.9988675962082363
},
{
"acceleration": 0.02276755446814222,
"curvature": 0.004844246559704263,
"pose": {
"rotation": {
"radians": 0.09909951617723302
},
"translation": {
"x": 13.71197428354743,
"y": 4.961047877569846
}
},
"time": 1.4948752419525073,
"velocity": -0.9988324480760793
},
{
"acceleration": 0.023646639635849495,
"curvature": 0.014372400832355933,
"pose": {
"rotation": {
"radians": 0.09813761392453424
},
"translation": {
"x": 13.612177879535917,
"y": 4.9511660512723985
}
},
"time": 1.5953920772356383,
"velocity": -0.9965439255538053
},
{
"acceleration": 0.025673478251601323,
"curvature": 0.024290046686057103,
"pose": {
"rotation": {
"radians": 0.09621396502324794
},
"translation": {
"x": 13.512848640231102,
"y": 4.941474891930973
}
},
"time": 1.695658352147744,
"velocity": -0.9941729650833298
},
{
"acceleration": 0.028935920257738716,
"curvature": 0.0350074564570348,
"pose": {
"rotation": {
"radians": 0.09330028710845896
},
"translation": {
"x": 13.414692016164881,
"y": 4.9321371998666965
}
},
"time": 1.7949633688097564,
"velocity": -0.9916234598977827
},
{
"acceleration": 0.033562701493180906,
"curvature": 0.04695254940368864,
"pose": {
"rotation": {
"radians": 0.0893508027563844
},
"translation": {
"x": 13.318381515202518,
"y": 4.9233077147537205
}
},
"time": 1.8926339133675942,
"velocity": -0.9887972728089272
},
{
"acceleration": 0.03966619138931251,
"curvature": 0.06057077908962236,
"pose": {
"rotation": {
"radians": 0.0843047851360383
},
"translation": {
"x": 13.224541741239879,
"y": 4.915129178104213
}
},
"time": 1.9880511281927,
"velocity": -0.9855948133104414
},
{
"acceleration": 0.04722081696866657,
"curvature": 0.07630236646611535,
"pose": {
"rotation": {
"radians": 0.07809142139020035
},
"translation": {
"x": 13.133731432900644,
"y": 4.907728395753345
}
},
"time": 2.080666776035388,
"velocity": -0.9819211032974682
},
{
"acceleration": 0.05581805959452978,
"curvature": 0.09451596111574832,
"pose": {
"rotation": {
"radians": 0.07063884055548476
},
"translation": {
"x": 13.046426502233528,
"y": 4.901212300344296
}
},
"time": 2.1700184146432533,
"velocity": -0.9777018459249157
},
{
"acceleration": 0.06421034504993119,
"curvature": 0.1153627544192746,
"pose": {
"rotation": {
"radians": 0.06189020247630444
},
"translation": {
"x": 12.9630030734095,
"y": 4.895664013813232
}
},
"time": 2.2557427292131886,
"velocity": -0.9729168810255509
},
{
"acceleration": 0.06954788768553853,
"curvature": 0.13849570389793103,
"pose": {
"rotation": {
"radians": 0.05183107453203603
},
"translation": {
"x": 12.883720521419008,
"y": 4.891138909874309
}
},
"time": 2.337585932456693,
"velocity": -0.9676617007052938
},
{
"acceleration": 0.06629572696530805,
"curvature": 0.16258524563264237,
"pose": {
"rotation": {
"radians": 0.04053356979771066
},
"translation": {
"x": 12.808704510769187,
"y": 4.887660676504655
}
},
"time": 2.41540983995937,
"velocity": -0.9622492123270479
},
{
"acceleration": 0.045138947134743014,
"curvature": 0.18459014452607128,
"pose": {
"rotation": {
"radians": 0.02822270078824406
},
"translation": {
"x": 12.737930034181092,
"y": 4.885217378429374
}
},
"time": 2.489192275094394,
"velocity": -0.9573577521525007
},
{
"acceleration": -0.05427846270235424,
"curvature": 0.19888946458762763,
"pose": {
"rotation": {
"radians": 0.01536636100391763
},
"translation": {
"x": 12.67120445128691,
"y": 4.883757519606527
}
},
"time": 2.559021554982586,
"velocity": -0.9542057319791705
},
{
"acceleration": -0.3336959251835206,
"curvature": 0.16738595311983923,
"pose": {
"rotation": {
"radians": -0.00830997038101772
},
"translation": {
"x": 12.548189471848016,
"y": 4.883360706625151
}
},
"time": 2.687471671577521,
"velocity": -0.9611778068418817
},
{
"acceleration": 0.4303821643303422,
"curvature": 2.4583485817129627e-14,
"pose": {
"rotation": {
"radians": -0.01928998933851713
},
"translation": {
"x": 12.434121258227016,
"y": 4.885117428313977
}
},
"time": 2.803811699214243,
"velocity": -0.999999999999994
},
{
"acceleration": 0.045748066837776,
"curvature": 0.22271804367418332,
"pose": {
"rotation": {
"radians": -0.034943730244494674
},
"translation": {
"x": 12.3186774790799,
"y": 4.887999704742677
}
},
"time": 2.922313302279729,
"velocity": -0.948999023596055
},
{
"acceleration": -0.06665864880706973,
"curvature": 0.23677068643146412,
"pose": {
"rotation": {
"radians": -0.049697881662054154
},
"translation": {
"x": 12.255689200273167,
"y": 4.890662579129494
}
},
"time": 2.988852691813613,
"velocity": -0.9459549751563141
},
{
"acceleration": -0.0991592434674958,
"curvature": 0.2145373679371168,
"pose": {
"rotation": {
"radians": -0.06530892915673236
},
"translation": {
"x": 12.187154473856795,
"y": 4.894616848015909
}
},
"time": 3.0612388741568703,
"velocity": -0.9507801402636178
},
{
"acceleration": -0.09365691962859399,
"curvature": 0.1789763179433307,
"pose": {
"rotation": {
"radians": -0.08013524120566547
},
"translation": {
"x": 12.112057448283263,
"y": 4.900104659719215
}
},
"time": 3.1401097446816895,
"velocity": -0.9586009161164817
},
{
"acceleration": -0.07592466811191537,
"curvature": 0.14302663080981048,
"pose": {
"rotation": {
"radians": -0.09339157260869424
},
"translation": {
"x": 12.029752960669855,
"y": 4.907284206016522
}
},
"time": 3.225934927539845,
"velocity": -0.9666390383695374
},
{
"acceleration": -0.05765540522445509,
"curvature": 0.11192402441063473,
"pose": {
"rotation": {
"radians": -0.10483365507201799
},
"translation": {
"x": 11.939934917657265,
"y": 4.916236778008718
}
},
"time": 3.3189732814387876,
"velocity": -0.9737029445109935
},
{
"acceleration": -0.04270810854837638,
"curvature": 0.08680402942768549,
"pose": {
"rotation": {
"radians": -0.11449976418029768
},
"translation": {
"x": 11.842604676268186,
"y": 4.926973821984436
}
},
"time": 3.4192408843895263,
"velocity": -0.9794839137900031
},
{
"acceleration": -0.03157895821562499,
"curvature": 0.06710820015530501,
"pose": {
"rotation": {
"radians": -0.1225487560187995
},
"translation": {
"x": 11.738039424765896,
"y": 4.939443995284009
}
},
"time": 3.526501991389408,
"velocity": -0.9840648327907731
},
{
"acceleration": -0.023664803041686014,
"curvature": 0.05178801844249717,
"pose": {
"rotation": {
"radians": -0.12917281886819232
},
"translation": {
"x": 11.626760563512864,
"y": 4.953540222163433
}
},
"time": 3.640278772525205,
"velocity": -0.9876577850081687
},
{
"acceleration": -0.0181869211343454,
"curvature": 0.039798563686393534,
"pose": {
"rotation": {
"radians": -0.1345557746678785
},
"translation": {
"x": 11.509502085829332,
"y": 4.969106749658337
}
},
"time": 3.7598728162399833,
"velocity": -0.9904879544976377
},
{
"acceleration": -0.015239670794144261,
"curvature": 0.030254100172146806,
"pose": {
"rotation": {
"radians": -0.13885580572427983
},
"translation": {
"x": 11.38717895885192,
"y": 4.985946203447936
}
},
"time": 3.8843930391235313,
"velocity": -0.9927525939708519
},
{
"acceleration": -0.013753748613759963,
"curvature": 0.02617080424725733,
"pose": {
"rotation": {
"radians": -0.14064069260871326
},
"translation": {
"x": 11.324445782863032,
"y": 4.9947719537923785
}
},
"time": 3.9481752647348043,
"velocity": -0.9937246140916856
},
{
"acceleration": -0.012570305443660943,
"curvature": 0.022444891322907588,
"pose": {
"rotation": {
"radians": -0.14220004896740543
},
"translation": {
"x": 11.260855504392202,
"y": 5.003826643718995
}
},
"time": 4.012783699005407,
"velocity": -0.9946132222549721
},
{
"acceleration": -0.01165208365140643,
"curvature": 0.01900992391129017,
"pose": {
"rotation": {
"radians": -0.1435448725354661
},
"translation": {
"x": 11.196559312818453,
"y": 5.013077037495618
}
},
"time": 4.078066795569961,
"velocity": -0.9954338507190965
},
{
"acceleration": -0.010971039283797201,
"curvature": 0.015805763442083717,
"pose": {
"rotation": {
"radians": -0.14468428608009437
},
"translation": {
"x": 11.131713779795318,
"y": 5.022488621029797
}
},
"time": 4.143866989413631,
"velocity": -0.9962005600820417
},
{
"acceleration": -0.010507614131430205,
"curvature": 0.012777166117628093,
"pose": {
"rotation": {
"radians": -0.14562558499659084
},
"translation": {
"x": 11.066479871152671,
"y": 5.032025822364546
}
},
"time": 4.210021725489962,
"velocity": -0.9969263462903444
},
{
"acceleration": -0.010250276748453793,
"curvature": 0.009872403809365698,
"pose": {
"rotation": {
"radians": -0.14637427420651322
},
"translation": {
"x": 11.001021958798557,
"y": 5.041652232174096
}
},
"time": 4.276364484599716,
"velocity": -0.9976234504034841
},
{
"acceleration": -0.010195392548085786,
"curvature": 0.007041898514933333,
"pose": {
"rotation": {
"radians": -0.14693408903269156
},
"translation": {
"x": 10.935506832621023,
"y": 5.051330824259642
}
},
"time": 4.342725805247607,
"velocity": -0.9983036723055179
},
{
"acceleration": -0.01034748244539817,
"curvature": 0.0042368430501026205,
"pose": {
"rotation": {
"radians": -0.14730699587730733
},
"translation": {
"x": 10.87010271238995,
"y": 5.061024176045088
}
},
"time": 4.408934300489767,
"velocity": -0.9989786939045298
},
{
"acceleration": 0.0003289345642626659,
"curvature": 0.001407768131215745,
"pose": {
"rotation": {
"radians": -0.14749316914377147
},
"translation": {
"x": 10.804978259658887,
"y": 5.070694689072804
}
},
"time": 4.474817668945791,
"velocity": -0.9996604209030722
},
{
"acceleration": 0.011286972230333968,
"curvature": -0.001496995568006585,
"pose": {
"rotation": {
"radians": -0.14749094105774507
},
"translation": {
"x": 10.74030158966687,
"y": 5.080304809499365
}
},
"time": 4.540227326561516,
"velocity": -0.9996389054058458
},
{
"acceleration": 0.012124059280489171,
"curvature": -0.0045330242383817,
"pose": {
"rotation": {
"radians": -0.14729672095513824
},
"translation": {
"x": 10.676239283240271,
"y": 5.089817248591311
}
},
"time": 4.605039129713143,
"velocity": -0.9989073763834755
},
{
"acceleration": 0.014031659084279856,
"curvature": -0.007761755293877991,
"pose": {
"rotation": {
"radians": -0.1469048802876242
},
"translation": {
"x": 10.612955398694615,
"y": 5.099195203220884
}
},
"time": 4.669108982701101,
"velocity": -0.9981305896877573
},
{
"acceleration": 0.018049085130585795,
"curvature": -0.01508664034792298,
"pose": {
"rotation": {
"radians": -0.1454946692024324
},
"translation": {
"x": 10.48936058736501,
"y": 5.117404197584925
}
},
"time": 4.794382231196592,
"velocity": -0.9963727981724882
},
{
"acceleration": 0.024671550416611322,
"curvature": -0.02418061893380183,
"pose": {
"rotation": {
"radians": -0.1431675599662362
},
"translation": {
"x": 10.370741624254999,
"y": 5.134655458522051
}
},
"time": 4.9148168293977035,
"velocity": -0.9941990638568885
},
{
"acceleration": 0.035506398691185145,
"curvature": -0.03605683775012943,
"pose": {
"rotation": {
"radians": -0.1397833631796431
},
"translation": {
"x": 10.258219379485233,
"y": 5.1506945333820795
}
},
"time": 5.029302248309355,
"velocity": -0.9913745310722428
},
{
"acceleration": 0.053344511495310276,
"curvature": -0.05222570990760264,
"pose": {
"rotation": {
"radians": -0.13514171246041087
},
"translation": {
"x": 10.152779505578671,
"y": 5.1652959067980335
}
},
"time": 5.136881711545533,
"velocity": -0.9875547717595954
},
{
"acceleration": 0.08294246405778409,
"curvature": -0.0749954312720662,
"pose": {
"rotation": {
"radians": -0.12896489190009336
},
"translation": {
"x": 10.055240818319163,
"y": 5.17827005655011
}
},
"time": 5.2367890953744345,
"velocity": -0.9822252611744682
},
{
"acceleration": 0.13199280123778315,
"curvature": -0.1079208601138225,
"pose": {
"rotation": {
"radians": -0.12087688679330086
},
"translation": {
"x": 9.966223677610053,
"y": 5.189470509429639
}
},
"time": 5.3284867197225285,
"velocity": -0.9746196342627922
},
{
"acceleration": 0.21127685591735765,
"curvature": -0.15638844276455052,
"pose": {
"rotation": {
"radians": -0.11038332187778813
},
"translation": {
"x": 9.886118368332774,
"y": 5.19880089710305
}
},
"time": 5.4117026526694705,
"velocity": -0.9636357301655097
},
{
"acceleration": 0.39704221391365874,
"curvature": -0.22805519603659952,
"pose": {
"rotation": {
"radians": -0.09686824275904476
},
"translation": {
"x": 9.815053481205425,
"y": 5.206222011975828
}
},
"time": 5.486463003004642,
"velocity": -0.9478405983994145
},
{
"acceleration": 0.43869491458153126,
"curvature": -0.47188229856283503,
"pose": {
"rotation": {
"radians": -0.05822030058365929
},
"translation": {
"x": 9.699061150607886,
"y": 5.215507731820498
}
},
"time": 5.6125601578012345,
"velocity": -0.8977747048907623
},
{
"acceleration": 0.15044214510303128,
"curvature": -0.705204283538648,
"pose": {
"rotation": {
"radians": -0.005756922603491517
},
"translation": {
"x": 9.612840000922356,
"y": 5.218425345819272
}
},
"time": 5.711022542658543,
"velocity": -0.8545797573762917
},
{
"acceleration": 2.000000000000001,
"curvature": -1.7430306259142016e-14,
"pose": {
"rotation": {
"radians": 0.026779311019769794
},
"translation": {
"x": 9.544772615590553,
"y": 5.217438677946287
}
},
"time": 5.791247544620146,
"velocity": -0.8425105359902932
},
{
"acceleration": 1.8056821235521425,
"curvature": -2.006262617862824,
"pose": {
"rotation": {
"radians": 0.09229272113654201
},
"translation": {
"x": 9.480896054289941,
"y": 5.214311716390193
}
},
"time": 5.875600826961254,
"velocity": -0.6738039713080777
},
{
"acceleration": 1.2885740630291216,
"curvature": -2.938947073798425,
"pose": {
"rotation": {
"radians": 0.16882000826991164
},
"translation": {
"x": 9.450221415957685,
"y": 5.21035911768477
}
},
"time": 5.924736803708229,
"velocity": -0.5850800164727903
},
{
"acceleration": 1.0143837665354858,
"curvature": -3.380604226875072,
"pose": {
"rotation": {
"radians": 0.2166723354188682
},
"translation": {
"x": 9.435365352724508,
"y": 5.207468269505007
}
},
"time": 5.951386659108488,
"velocity": -0.5507397040205405
},
{
"acceleration": 0.7679734700909759,
"curvature": -3.7869563533269885,
"pose": {
"rotation": {
"radians": 0.27022436232277847
},
"translation": {
"x": 9.420876277483167,
"y": 5.203877333684227
}
},
"time": 5.979203582299997,
"velocity": -0.5225226687001101
},
{
"acceleration": 0.5400403655453294,
"curvature": -4.1380010658598465,
"pose": {
"rotation": {
"radians": 0.3287539155501971
},
"translation": {
"x": 9.406781449516057,
"y": 5.199531850543684
}
},
"time": 6.008042210548019,
"velocity": -0.5003753672918131
},
{
"acceleration": 0.32522991671960116,
"curvature": -4.412102466499955,
"pose": {
"rotation": {
"radians": 0.39134487915943467
},
"translation": {
"x": 9.393102532612966,
"y": 5.194387516900242
}
},
"time": 6.037724259061347,
"velocity": -0.48434586296254084
},
{
"acceleration": 0.1203232466689725,
"curvature": -4.589887951135155,
"pose": {
"rotation": {
"radians": 0.45689522755871176
},
"translation": {
"x": 9.379855834657224,
"y": 5.188409762053741
}
},
"time": 6.068038235598251,
"velocity": -0.4744868508980039
},
{
"acceleration": -0.07657801507360686,
"curvature": -4.658436982649033,
"pose": {
"rotation": {
"radians": 0.5241603333867445
},
"translation": {
"x": 9.367052547211859,
"y": 5.181573323774341
}
},
"time": 6.098746992939938,
"velocity": -0.4707918735134825
},
{
"acceleration": -0.26626795356526384,
"curvature": -4.614478291353995,
"pose": {
"rotation": {
"radians": 0.5918275083121245
},
"translation": {
"x": 9.354698985105749,
"y": 5.17386182428988
}
},
"time": 6.129602316098569,
"velocity": -0.4731547129154252
},
{
"acceleration": -0.44838451000194895,
"curvature": -4.465437275338381,
"pose": {
"rotation": {
"radians": 0.6586084517975677
},
"translation": {
"x": 9.342796826019782,
"y": 5.165267346273231
}
},
"time": 6.160363586567593,
"velocity": -0.48134545345227975
},
{
"acceleration": -0.6213718740340731,
"curvature": -4.227941485358157,
"pose": {
"rotation": {
"radians": 0.7233304666911411
},
"translation": {
"x": 9.331343350073006,
"y": 5.155790008829646
}
},
"time": 6.190816205879782,
"velocity": -0.49499993624085165
},
{
"acceleration": -0.7826557293845271,
"curvature": -3.924395881640054,
"pose": {
"rotation": {
"radians": 0.785008055822671
},
"translation": {
"x": 9.32033167940879,
"y": 5.145437543484121
}
},
"time": 6.220785638574212,
"velocity": -0.5136220987979276
},
{
"acceleration": -0.9291042385589189,
"curvature": -3.5788870667916357,
"pose": {
"rotation": {
"radians": 0.8428834658631106
},
"translation": {
"x": 9.309751017780975,
"y": 5.134224870168744
}
},
"time": 6.250144558555862,
"velocity": -0.5366000257301072
},
{
"acceleration": -1.057708848266036,
"curvature": -3.213656444452042,
"pose": {
"rotation": {
"radians": 0.8964343235108592
},
"translation": {
"x": 9.299586890140032,
"y": 5.122173673210051
}
},
"time": 6.278812797154721,
"velocity": -0.5632358077243256
},
{
"acceleration": -1.1663158640170381,
"curvature": -2.846857841109236,
"pose": {
"rotation": {
"radians": 0.9453544774399658
},
"translation": {
"x": 9.28982138221921,
"y": 5.109311977316377
}
},
"time": 6.306751595885381,
"velocity": -0.5927869223516686
},
{
"acceleration": -1.2889671020529592,
"curvature": -2.4916901421490523,
"pose": {
"rotation": {
"radians": 0.9895180987661623
},
"translation": {
"x": 9.280433380120703,
"y": 5.0956737235652145
}
},
"time": 6.3339545127176065,
"velocity": -0.6245141158006287
},
{
"acceleration": -1.3934322133314339,
"curvature": -1.8459570781020442,
"pose": {
"rotation": {
"radians": 1.0637192205431962
},
"translation": {
"x": 9.26269087716102,
"y": 5.066230344570286
}
},
"time": 6.38618377306275,
"velocity": -0.691835914150078
},
{
"acceleration": -1.497394476320803,
"curvature": -1.3017431184439099,
"pose": {
"rotation": {
"radians": 1.1200732459605995
},
"translation": {
"x": 9.246135581731176,
"y": 5.034217279747746
}
},
"time": 6.435798697369115,
"velocity": -0.760970947940568
},
{
"acceleration": -0.6655776706171026,
"curvature": -0.46714632857446925,
"pose": {
"rotation": {
"radians": 1.1854816056415562
},
"translation": {
"x": 9.215519779183461,
"y": 4.964301123790732
}
},
"time": 6.527775656565058,
"velocity": -0.8986967385893576
},
{
"acceleration": 1.422416947372325,
"curvature": 0.1907056205598588,
"pose": {
"rotation": {
"radians": 1.195891138823821
},
"translation": {
"x": 9.18621636620335,
"y": 4.890021474532506
}
},
"time": 6.613881948520237,
"velocity": -0.9560071638143615
},
{
"acceleration": 1.2182171347065258,
"curvature": 0.8598325294909402,
"pose": {
"rotation": {
"radians": 1.1544976129807298
},
"translation": {
"x": 9.155649971522013,
"y": 4.8159036689411305
}
},
"time": 6.70375323672209,
"velocity": -0.8281727203938631
},
{
"acceleration": 1.1356922149095232,
"curvature": 1.2498650661108337,
"pose": {
"rotation": {
"radians": 1.1133006977221513
},
"translation": {
"x": 9.139092464367256,
"y": 4.78033011112482
}
},
"time": 6.752909556302351,
"velocity": -0.768289649602079
},
{
"acceleration": 1.0377885992591585,
"curvature": 1.6969521804833205,
"pose": {
"rotation": {
"radians": 1.0571570681193438
},
"translation": {
"x": 9.121284795098864,
"y": 4.746467973164821
}
},
"time": 6.804688903018502,
"velocity": -0.7094842486434445
},
{
"acceleration": 0.9379119268422784,
"curvature": 2.202418536545321,
"pose": {
"rotation": {
"radians": 0.9850380573431745
},
"translation": {
"x": 9.101956422190238,
"y": 4.71481026188952
}
},
"time": 6.859136965926901,
"velocity": -0.6529786697053629
},
{
"acceleration": 0.8533682978489527,
"curvature": 2.4710954062878945,
"pose": {
"rotation": {
"radians": 0.9427831354661448
},
"translation": {
"x": 9.091646279787424,
"y": 4.699947574801435
}
},
"time": 6.887412885551964,
"velocity": -0.6264583474465828
},
{
"acceleration": 0.754332656163566,
"curvature": 2.7428441656812366,
"pose": {
"rotation": {
"radians": 0.8964114208823749
},
"translation": {
"x": 9.080869944344398,
"y": 4.685795393582363
}
},
"time": 6.9163789312200405,
"velocity": -0.6017396423594009
},
{
"acceleration": 0.6414271570828718,
"curvature": 3.0086247088425777,
"pose": {
"rotation": {
"radians": 0.846056698643303
},
"translation": {
"x": 9.069604176687227,
"y": 4.6723977644286965
}
},
"time": 6.946019748512662,
"velocity": -0.5793806059201989
},
{
"acceleration": 0.5161014908282002,
"curvature": 3.256714041253631,
"pose": {
"rotation": {
"radians": 0.7919850177717365
},
"translation": {
"x": 9.057828767250953,
"y": 4.6597936255771835
}
},
"time": 6.976298519035686,
"velocity": -0.5599589802236509
},
{
"acceleration": 0.3803116362504186,
"curvature": 3.4733286794372202,
"pose": {
"rotation": {
"radians": 0.7346172397095005
},
"translation": {
"x": 9.045526775665746,
"y": 4.648016383292286
}
},
"time": 7.007151258467307,
"velocity": -0.5440358354068575
},
{
"acceleration": 0.23618028736846694,
"curvature": 3.64391043728006,
"pose": {
"rotation": {
"radians": 0.6745407337920206
},
"translation": {
"x": 9.032684770343057,
"y": 4.637093487853528
}
},
"time": 7.038483201547203,
"velocity": -0.5321199328672369
},
{
"acceleration": 0.08572486489436658,
"curvature": 3.7550009166834495,
"pose": {
"rotation": {
"radians": 0.6125046438313773
},
"translation": {
"x": 9.019293068061776,
"y": 4.627046009542855
}
},
"time": 7.070168552890939,
"velocity": -0.5246364774815026
},
{
"acceleration": -0.06929273491217698,
"curvature": 3.7963722689140615,
"pose": {
"rotation": {
"radians": 0.5493952201706787
},
"translation": {
"x": 9.005345973554382,
"y": 4.617888214631983
}
},
"time": 7.102054443985709,
"velocity": -0.5219030637753669
},
{
"acceleration": -0.22739909261277733,
"curvature": 3.76286772331169,
"pose": {
"rotation": {
"radians": 0.486191735491955
},
"translation": {
"x": 8.990842019093103,
"y": 4.609627141369755
}
},
"time": 7.133969042392358,
"velocity": -0.5241145135825873
},
{
"acceleration": -0.3873911958837616,
"curvature": 3.655378649656327,
"pose": {
"rotation": {
"radians": 0.4239084809680501
},
"translation": {
"x": 8.975784204076072,
"y": 4.602262175969497
}
},
"time": 7.165732632972735,
"velocity": -0.5313375252586888
},
{
"acceleration": -0.5483742594703918,
"curvature": 3.4806155564421157,
"pose": {
"rotation": {
"radians": 0.3635324400305393
},
"translation": {
"x": 8.960180234613478,
"y": 4.595784628596366
}
},
"time": 7.197169557387238,
"velocity": -0.5435159130025308
},
{
"acceleration": -0.7099681669867455,
"curvature": 3.249734470096881,
"pose": {
"rotation": {
"radians": 0.3059676800822383
},
"translation": {
"x": 8.944042763113721,
"y": 4.590177309354708
}
},
"time": 7.228118574258018,
"velocity": -0.5604875572103812
},
{
"acceleration": -0.8727710382413025,
"curvature": 2.9762540532828603,
"pose": {
"rotation": {
"radians": 0.251995627289107
},
"translation": {
"x": 8.927389627869573,
"y": 4.585414104275416
}
},
"time": 7.2584396423938085,
"velocity": -0.5820145503758282
},
{
"acceleration": -1.1277573624560053,
"curvature": 2.6738588449510767,
"pose": {
"rotation": {
"radians": 0.20225608379966142
},
"translation": {
"x": 8.910244092644325,
"y": 4.581459551303272
}
},
"time": 7.288016121816281,
"velocity": -0.6078280450289025
},
{
"acceleration": 1.8982714782562171,
"curvature": 2.027663196912273,
"pose": {
"rotation": {
"radians": 0.11735315761215366
},
"translation": {
"x": 8.874597442173245,
"y": 4.575785268953184
}
},
"time": 7.344446307226161,
"velocity": -0.6714676020896518
},
{
"acceleration": 2.0,
"curvature": 1.3708335063962107,
"pose": {
"rotation": {
"radians": 0.05399506780860913
},
"translation": {
"x": 8.837406535491183,
"y": 4.572667691660103
}
},
"time": 7.405254810870883,
"velocity": -0.5560365539854389
},
{
"acceleration": 2.0,
"curvature": 4.547473508866024e-15,
"pose": {
"rotation": {
"radians": -5.451535198115842e-15
},
"translation": {
"x": 8.760125220625374,
"y": 4.571258470327901
}
},
"time": 7.683273087863602,
"velocity": -0.0
}
]